%!PS-Adobe-3.0 EPSF-3.0
%%Creator: MATLAB, The MathWorks, Inc. Version 8.3.0.532 (R2014a). Operating System: Linux 3.2.0-40-generic #64-Ubuntu SMP Mon Mar 25 21:22:10 UTC 2013 x86_64.
%%Title: /home/danilo/Documents/MATLAB/STIFFFLOP/sf_moving/stiff.eps
%%CreationDate: 05/21/2015  15:54:05
%%DocumentNeededFonts: Helvetica
%%DocumentProcessColors: Cyan Magenta Yellow Black
%%LanguageLevel: 2
%%Pages: 1
%%BoundingBox:   -15   259   627   532
%%EndComments

%%BeginProlog
% MathWorks dictionary
/MathWorks 160 dict begin
% definition operators
/bdef {bind def} bind def
/ldef {load def} bind def
/xdef {exch def} bdef
/xstore {exch store} bdef
% operator abbreviations
/c  /clip ldef
/cc /concat ldef
/cp /closepath ldef
/gr /grestore ldef
/gs /gsave ldef
/mt /moveto ldef
/np /newpath ldef
/cm /currentmatrix ldef
/sm /setmatrix ldef
/rm /rmoveto ldef
/rl /rlineto ldef
/s {show newpath} bdef
/sc {setcmykcolor} bdef
/sr /setrgbcolor ldef
/sg /setgray ldef
/w /setlinewidth ldef
/j /setlinejoin ldef
/cap /setlinecap ldef
/rc {rectclip} bdef
/rf {rectfill} bdef
% page state control
/pgsv () def
/bpage {/pgsv save def} bdef
/epage {pgsv restore} bdef
/bplot /gsave ldef
/eplot {stroke grestore} bdef
% orientation switch
/portraitMode 0 def /landscapeMode 1 def /rotateMode 2 def
% coordinate system mappings
/dpi2point 0 def
% font control
/FontSize 0 def
/FMS {/FontSize xstore findfont [FontSize 0 0 FontSize neg 0 0]
  makefont setfont} bdef
/reencode {exch dup where {pop load} {pop StandardEncoding} ifelse
  exch dup 3 1 roll findfont dup length dict begin
  { 1 index /FID ne {def}{pop pop} ifelse } forall
  /Encoding exch def currentdict end definefont pop} bdef
/isroman {findfont /CharStrings get /Agrave known} bdef
/FMSR {3 1 roll 1 index dup isroman {reencode} {pop pop} ifelse
  exch FMS} bdef
/csm {1 dpi2point div -1 dpi2point div scale neg translate
 dup landscapeMode eq {pop -90 rotate}
  {rotateMode eq {90 rotate} if} ifelse} bdef
% line types: solid, dotted, dashed, dotdash
/SO { [] 0 setdash } bdef
/DO { [.5 dpi2point mul 4 dpi2point mul] 0 setdash } bdef
/DA { [6 dpi2point mul] 0 setdash } bdef
/DD { [.5 dpi2point mul 4 dpi2point mul 6 dpi2point mul 4
  dpi2point mul] 0 setdash } bdef
% macros for lines and objects
/L {lineto stroke} bdef
/MP {3 1 roll moveto 1 sub {rlineto} repeat} bdef
/AP {{rlineto} repeat} bdef
/PDlw -1 def
/W {/PDlw currentlinewidth def setlinewidth} def
/PP {closepath eofill} bdef
/DP {closepath stroke} bdef
/MR {4 -2 roll moveto dup  0 exch rlineto exch 0 rlineto
  neg 0 exch rlineto closepath} bdef
/FR {MR stroke} bdef
/PR {MR fill} bdef
/L1i {{currentfile picstr readhexstring pop} image} bdef
/tMatrix matrix def
/MakeOval {newpath tMatrix currentmatrix pop translate scale
0 0 1 0 360 arc tMatrix setmatrix} bdef
/FO {MakeOval stroke} bdef
/PO {MakeOval fill} bdef
/PD {currentlinewidth 2 div 0 360 arc fill
   PDlw -1 eq not {PDlw w /PDlw -1 def} if} def
/FA {newpath tMatrix currentmatrix pop translate scale
  0 0 1 5 -2 roll arc tMatrix setmatrix stroke} bdef
/PA {newpath tMatrix currentmatrix pop	translate 0 0 moveto scale
  0 0 1 5 -2 roll arc closepath tMatrix setmatrix fill} bdef
/FAn {newpath tMatrix currentmatrix pop translate scale
  0 0 1 5 -2 roll arcn tMatrix setmatrix stroke} bdef
/PAn {newpath tMatrix currentmatrix pop translate 0 0 moveto scale
  0 0 1 5 -2 roll arcn closepath tMatrix setmatrix fill} bdef
/vradius 0 def /hradius 0 def /lry 0 def
/lrx 0 def /uly 0 def /ulx 0 def /rad 0 def
/MRR {/vradius xdef /hradius xdef /lry xdef /lrx xdef /uly xdef
  /ulx xdef newpath tMatrix currentmatrix pop ulx hradius add uly
  vradius add translate hradius vradius scale 0 0 1 180 270 arc 
  tMatrix setmatrix lrx hradius sub uly vradius add translate
  hradius vradius scale 0 0 1 270 360 arc tMatrix setmatrix
  lrx hradius sub lry vradius sub translate hradius vradius scale
  0 0 1 0 90 arc tMatrix setmatrix ulx hradius add lry vradius sub
  translate hradius vradius scale 0 0 1 90 180 arc tMatrix setmatrix
  closepath} bdef
/FRR {MRR stroke } bdef
/PRR {MRR fill } bdef
/MlrRR {/lry xdef /lrx xdef /uly xdef /ulx xdef /rad lry uly sub 2 div def
  newpath tMatrix currentmatrix pop ulx rad add uly rad add translate
  rad rad scale 0 0 1 90 270 arc tMatrix setmatrix lrx rad sub lry rad
  sub translate rad rad scale 0 0 1 270 90 arc tMatrix setmatrix
  closepath} bdef
/FlrRR {MlrRR stroke } bdef
/PlrRR {MlrRR fill } bdef
/MtbRR {/lry xdef /lrx xdef /uly xdef /ulx xdef /rad lrx ulx sub 2 div def
  newpath tMatrix currentmatrix pop ulx rad add uly rad add translate
  rad rad scale 0 0 1 180 360 arc tMatrix setmatrix lrx rad sub lry rad
  sub translate rad rad scale 0 0 1 0 180 arc tMatrix setmatrix
  closepath} bdef
/FtbRR {MtbRR stroke } bdef
/PtbRR {MtbRR fill } bdef
/stri 6 array def /dtri 6 array def
/smat 6 array def /dmat 6 array def
/tmat1 6 array def /tmat2 6 array def /dif 3 array def
/asub {/ind2 exch def /ind1 exch def dup dup
  ind1 get exch ind2 get sub exch } bdef
/tri_to_matrix {
  2 0 asub 3 1 asub 4 0 asub 5 1 asub
  dup 0 get exch 1 get 7 -1 roll astore } bdef
/compute_transform {
  dmat dtri tri_to_matrix tmat1 invertmatrix 
  smat stri tri_to_matrix tmat2 concatmatrix } bdef
/ds {stri astore pop} bdef
/dt {dtri astore pop} bdef
/db {2 copy /cols xdef /rows xdef mul dup 3 mul string
  currentfile 
  3 index 0 eq {/ASCIIHexDecode filter}
  {/ASCII85Decode filter 3 index 2 eq {/RunLengthDecode filter} if }
  ifelse exch readstring pop
  dup 0 3 index getinterval /rbmap xdef
  dup 2 index dup getinterval /gbmap xdef
  1 index dup 2 mul exch getinterval /bbmap xdef pop pop}bdef
/it {gs np dtri aload pop moveto lineto lineto cp c
  cols rows 8 compute_transform 
  rbmap gbmap bbmap true 3 colorimage gr}bdef
/il {newpath moveto lineto stroke}bdef
currentdict end def
%%EndProlog

%%BeginSetup
MathWorks begin

0 cap

end
%%EndSetup

%%Page: 1 1
%%BeginPageSetup
%%PageBoundingBox:   -15   259   627   532
MathWorks begin
bpage
%%EndPageSetup

%%BeginObject: obj1
bplot

/dpi2point 12 def
portraitMode -0180 6384 csm

    0     0  7708  3274 rc
85 dict begin %Colortable dictionary
/c0 { 0.000000 0.000000 0.000000 sr} bdef
/c1 { 1.000000 1.000000 1.000000 sr} bdef
/c2 { 0.900000 0.000000 0.000000 sr} bdef
/c3 { 0.000000 0.820000 0.000000 sr} bdef
/c4 { 0.000000 0.000000 0.800000 sr} bdef
/c5 { 0.910000 0.820000 0.320000 sr} bdef
/c6 { 1.000000 0.260000 0.820000 sr} bdef
/c7 { 0.000000 0.820000 0.820000 sr} bdef
c0
1 j
1 sg
   0    0 7709 3275 rf
6 w
0 2579 2580 0 0 -2579 1002 2867 4 MP
PP
-2580 0 0 2579 2580 0 0 -2579 1002 2867 5 MP stroke
4 w
DO
0 sg
1002 2867 mt 1002  288 L
1002  288 mt 1002  288 L
2292 2867 mt 2292  288 L
2292  288 mt 2292  288 L
3582 2867 mt 3582  288 L
3582  288 mt 3582  288 L
1002 2867 mt 3582 2867 L
3582 2867 mt 3582 2867 L
1002 2222 mt 3582 2222 L
3582 2222 mt 3582 2222 L
1002 1577 mt 3582 1577 L
3582 1577 mt 3582 1577 L
1002  932 mt 3582  932 L
3582  932 mt 3582  932 L
1002  288 mt 3582  288 L
3582  288 mt 3582  288 L
SO
6 w
1002 2867 mt 3582 2867 L
1002  288 mt 3582  288 L
1002 2867 mt 1002  288 L
3582 2867 mt 3582  288 L
1002 2867 mt 3582 2867 L
1002 2867 mt 1002  288 L
1002 2867 mt 1002 2841 L
1002  288 mt 1002  313 L
%%IncludeResource: font Helvetica
/Helvetica /ISOLatin1Encoding 168 FMSR

 956 3057 mt 
(0) s
2292 2867 mt 2292 2841 L
2292  288 mt 2292  313 L
2176 3057 mt 
(0.5) s
3582 2867 mt 3582 2841 L
3582  288 mt 3582  313 L
3536 3057 mt 
(1) s
1002 2867 mt 1027 2867 L
3582 2867 mt 3556 2867 L
 687 2929 mt 
(276) s
1002 2222 mt 1027 2222 L
3582 2222 mt 3556 2222 L
 687 2284 mt 
(278) s
1002 1577 mt 1027 1577 L
3582 1577 mt 3556 1577 L
 687 1639 mt 
(280) s
1002  932 mt 1027  932 L
3582  932 mt 3556  932 L
 687  994 mt 
(282) s
1002  288 mt 1027  288 L
3582  288 mt 3556  288 L
 687  350 mt 
(284) s
1002 2867 mt 3582 2867 L
1002  288 mt 3582  288 L
1002 2867 mt 1002  288 L
3582 2867 mt 3582  288 L
gs 1002 288 2581 2580 rc
36 w
/c8 { 0.000000 0.000000 1.000000 sr} bdef
c8
29 0 29 0 29 0 29 0 29 1 29 0 29 2 29 2 
29 -2 29 -12 29 -16 29 -10 29 -32 29 -52 29 -47 29 -148 
29 -301 29 -228 29 -216 29 -190 29 -153 29 -108 29 -53 29 44 
29 203 29 130 29 -150 29 106 29 197 29 217 29 165 29 184 
29 127 29 19 29 8 29 -8 29 9 29 -8 29 11 29 -5 
29 -10 29 -18 29 -34 29 -92 29 -164 29 -178 29 -230 29 -253 
29 -190 29 -159 29 -188 29 -184 29 -143 29 -50 29 28 29 64 
29 61 29 59 29 47 29 23 29 3 29 -28 29 -36 29 -61 
29 -46 29 -9 29 18 29 71 29 140 29 135 29 123 29 94 
29 63 29 30 29 -2 29 -22 29 -22 29 14 29 49 29 127 
29 254 29 182 29 193 29 47 29 21 29 9 29 1 29 0 
28 0 1002 941 90 MP stroke
gr

36 w
c8
0 sg
1967  156 mt 
(Proximal) s
2104 3235 mt 
(Time) s
 595 1900 mt  -90 rotate
(Stiffness) s
90 rotate
6 w
1 sg
0 2580 2580 0 0 -2580 4396 2867 4 MP
PP
-2580 0 0 2580 2580 0 0 -2580 4396 2867 5 MP stroke
4 w
DO
0 sg
4396 2867 mt 4396  288 L
4396  288 mt 4396  288 L
5686 2867 mt 5686  288 L
5686  288 mt 5686  288 L
6976 2867 mt 6976  288 L
6976  288 mt 6976  288 L
4396 2867 mt 6976 2867 L
6976 2867 mt 6976 2867 L
4396 2437 mt 6976 2437 L
6976 2437 mt 6976 2437 L
4396 2007 mt 6976 2007 L
6976 2007 mt 6976 2007 L
4396 1577 mt 6976 1577 L
6976 1577 mt 6976 1577 L
4396 1147 mt 6976 1147 L
6976 1147 mt 6976 1147 L
4396  717 mt 6976  717 L
6976  717 mt 6976  717 L
4396  288 mt 6976  288 L
6976  288 mt 6976  288 L
SO
6 w
4396 2867 mt 6976 2867 L
4396  287 mt 6976  287 L
4396 2867 mt 4396  287 L
6976 2867 mt 6976  287 L
4396 2867 mt 6976 2867 L
4396 2867 mt 4396  287 L
4396 2867 mt 4396 2841 L
4396  288 mt 4396  313 L
4350 3057 mt 
(0) s
5686 2867 mt 5686 2841 L
5686  288 mt 5686  313 L
5570 3057 mt 
(0.5) s
6976 2867 mt 6976 2841 L
6976  288 mt 6976  313 L
6930 3057 mt 
(1) s
4396 2867 mt 4421 2867 L
6976 2867 mt 6950 2867 L
4081 2929 mt 
(200) s
4396 2437 mt 4421 2437 L
6976 2437 mt 6950 2437 L
4081 2499 mt 
(300) s
4396 2007 mt 4421 2007 L
6976 2007 mt 6950 2007 L
4081 2069 mt 
(400) s
4396 1577 mt 4421 1577 L
6976 1577 mt 6950 1577 L
4081 1639 mt 
(500) s
4396 1147 mt 4421 1147 L
6976 1147 mt 6950 1147 L
4081 1209 mt 
(600) s
4396  717 mt 4421  717 L
6976  717 mt 6950  717 L
4081  779 mt 
(700) s
4396  288 mt 4421  288 L
6976  288 mt 6950  288 L
4081  350 mt 
(800) s
4396 2867 mt 6976 2867 L
4396  287 mt 6976  287 L
4396 2867 mt 4396  287 L
6976 2867 mt 6976  287 L
gs 4396 288 2581 2580 rc
36 w
c8
29 1 29 0 29 1 29 2 29 3 29 5 29 8 29 13 
29 -1 29 -28 29 -52 29 -81 29 3 29 -8 29 -5 29 -41 
29 -84 29 -55 29 -53 29 -47 29 -41 29 -32 29 -18 29 13 
29 59 29 36 29 -36 29 35 29 65 29 77 29 73 29 87 
29 83 29 22 29 5 29 -3 29 5 29 -3 29 5 29 -2 
29 -4 29 -9 29 -17 29 -47 29 -72 29 -77 29 -82 29 -81 
29 -52 29 -188 29 -84 29 -154 29 -173 29 -137 29 -112 29 -90 
29 -69 29 -55 29 -39 29 -9 29 -1 29 10 29 10 29 15 
29 2 29 -22 29 -30 29 -30 29 -27 29 -24 29 -21 29 -17 
29 -13 29 -9 29 -6 29 -5 29 -6 29 -9 29 -10 29 -9 
29 -6 29 -8 29 -11 29 -6 29 -4 29 -4 29 -3 29 -3 
28 -3 4396 2471 90 MP stroke
gr

36 w
c8
0 sg
5475  156 mt 
(Distal) s
5498 3235 mt 
(Time) s
3989 1900 mt  -90 rotate
(Stiffness) s
90 rotate
6 w

end %%Color Dict

eplot
%%EndObject

epage
end

showpage

%%Trailer
%%EOF
